tb/top/waveform.vcd
$version Generated by VerilatedVcd $end
$timescale 1ps $end
 $scope module TOP $end
  $var wire 1 6 clk_i $end
  $var wire 1 7 n_rst $end
  $var wire 1 8 branch_taken_en_i $end
  $var wire 32 9 next_pc_i [31:0] $end
  $var wire 1 : decode_ready $end
  $scope module top $end
   $var wire 32 ; XLEN [31:0] $end
   $var wire 1 6 clk_i $end
   $var wire 1 7 n_rst $end
   $var wire 1 8 branch_taken_en_i $end
   $var wire 32 9 next_pc_i [31:0] $end
   $var wire 1 : decode_ready $end
   $var wire 32 # instruction [31:0] $end
   $var wire 1 $ fetch_ready $end
   $scope module ram_if $end
    $var wire 32 ; DATA_WIDTH [31:0] $end
    $var wire 32 ; ADDR_WIDTH [31:0] $end
    $var wire 1 6 clk_i_a $end
    $var wire 1 6 clk_i_b $end
    $var wire 1 = we_i_a $end
    $var wire 1 > en_i_a $end
    $var wire 32 ? data_i_a [31:0] $end
    $var wire 32 4 data_o_a [31:0] $end
    $var wire 32 % addr_i_a [31:0] $end
    $var wire 1 @ we_i_b $end
    $var wire 1 A en_i_b $end
    $var wire 32 B data_i_b [31:0] $end
    $var wire 32 5 data_o_b [31:0] $end
    $var wire 32 C addr_i_b [31:0] $end
   $upscope $end
   $scope module fetch $end
    $var wire 32 ; XLEN [31:0] $end
    $var wire 1 6 clk_i $end
    $var wire 1 8 branch_taken_en_i $end
    $var wire 32 9 next_pc_i [31:0] $end
    $var wire 1 $ valid_o $end
    $var wire 32 # instruction [31:0] $end
    $var wire 1 : ready_i $end
    $scope module ram_if $end
     $var wire 32 ; DATA_WIDTH [31:0] $end
     $var wire 32 ; ADDR_WIDTH [31:0] $end
     $var wire 1 6 clk_i_a $end
     $var wire 1 6 clk_i_b $end
     $var wire 1 = we_i_a $end
     $var wire 1 > en_i_a $end
     $var wire 32 ? data_i_a [31:0] $end
     $var wire 32 4 data_o_a [31:0] $end
     $var wire 32 % addr_i_a [31:0] $end
     $var wire 1 @ we_i_b $end
     $var wire 1 A en_i_b $end
     $var wire 32 B data_i_b [31:0] $end
     $var wire 32 5 data_o_b [31:0] $end
     $var wire 32 C addr_i_b [31:0] $end
    $upscope $end
    $var wire 32 % pc [31:0] $end
    $var wire 2 & state [1:0] $end
   $upscope $end
   $scope module main_memory $end
    $var wire 32 ; DATA_WIDTH [31:0] $end
    $var wire 32 ; ADDR_WIDTH [31:0] $end
    $var wire 32 < DATA_DEPTH [31:0] $end
    $scope module ram_if $end
     $var wire 32 ; DATA_WIDTH [31:0] $end
     $var wire 32 ; ADDR_WIDTH [31:0] $end
     $var wire 1 6 clk_i_a $end
     $var wire 1 6 clk_i_b $end
     $var wire 1 = we_i_a $end
     $var wire 1 > en_i_a $end
     $var wire 32 ? data_i_a [31:0] $end
     $var wire 32 4 data_o_a [31:0] $end
     $var wire 32 % addr_i_a [31:0] $end
     $var wire 1 @ we_i_b $end
     $var wire 1 A en_i_b $end
     $var wire 32 B data_i_b [31:0] $end
     $var wire 32 5 data_o_b [31:0] $end
     $var wire 32 C addr_i_b [31:0] $end
    $upscope $end
    $var wire 32 ' data[0] [31:0] $end
    $var wire 32 ( data[1] [31:0] $end
    $var wire 32 ) data[2] [31:0] $end
    $var wire 32 * data[3] [31:0] $end
    $var wire 32 + data[4] [31:0] $end
    $var wire 32 , data[5] [31:0] $end
    $var wire 32 - data[6] [31:0] $end
    $var wire 32 . data[7] [31:0] $end
    $var wire 32 / data[8] [31:0] $end
    $var wire 32 0 data[9] [31:0] $end
    $var wire 32 1 data[10] [31:0] $end
    $var wire 32 2 data[11] [31:0] $end
    $var wire 32 3 data[12] [31:0] $end
   $upscope $end
  $upscope $end
 $upscope $end
$enddefinitions $end


#0
b00000000000000000000000000000000 #
0$
b00000000000000000000000000000000 %
b00 &
b00000000000000000000000000000001 '
b00000000000000000000000000000010 (
b00000000000000000000000000000011 )
b00000000000000000000000000000100 *
b00000000000000000000000000000101 +
b00000000000000000000000000000110 ,
b00000000000000000000000000000111 -
b00000000000000000000000000001000 .
b00000000000000000000000000001001 /
b00000000000000000000000000001010 0
b00000000000000000000000000001011 1
b00000000000000000000000000001100 2
b00000000000000000000000000001101 3
b00000000000000000000000000000000 4
b00000000000000000000000000000000 5
16
07
08
b00000000000000000000000000000000 9
1:
b00000000000000000000000000100000 ;
b00000000000000000010000000000000 <
0=
1>
b00000000000000000000000000000000 ?
0@
0A
b00000000000000000000000000000000 B
b00000000000000000000000000000000 C
#1
06
#2
b00000000000000000000000000000001 #
1$
b00000000000000000000000000000100 %
b10 &
b00000000000000000000000000000001 4
16
#3
06
#4
b00000000000000000000000000000101 #
b00000000000000000000000000001000 %
b00000000000000000000000000000101 4
16
#5
06
#6
b00000000000000000000000000001001 #
b00000000000000000000000000001100 %
b00000000000000000000000000001001 4
16
#7
06
#8
b00000000000000000000000000001101 #
b00000000000000000000000000010000 %
b00000000000000000000000000001101 4
16
#9
06
#10
b00000000000000000000000000000001 #
b00000000000000000000000000010100 %
b00000000000000000000000000000001 4
16
#11
06
#12
b00000000000000000000000000000101 #
b00000000000000000000000000011000 %
b00000000000000000000000000000101 4
16
#13
06
#14
b00000000000000000000000000001001 #
b00000000000000000000000000011100 %
b00000000000000000000000000001001 4
16
#15
06
#16
b00000000000000000000000000001101 #
b00000000000000000000000000100000 %
b00000000000000000000000000001101 4
16
#17
06
#18
b00000000000000000000000000000001 #
b00000000000000000000000000100100 %
b00000000000000000000000000000001 4
16
#19
06
#20
b00000000000000000000000000000101 #
b00000000000000000000000000101000 %
b00000000000000000000000000000101 4
16
#21
06
#22
b00000000000000000000000000001001 #
b00000000000000000000000000101100 %
b00000000000000000000000000001001 4
16
#23
06
#24
b00000000000000000000000000001101 #
b00000000000000000000000000110000 %
b00000000000000000000000000001101 4
16
#25
06
#26
b00000000000000000000000000000001 #
b00000000000000000000000000110100 %
b00000000000000000000000000000001 4
16
#27
06
#28
b00000000000000000000000000000101 #
b00000000000000000000000000111000 %
b00000000000000000000000000000101 4
16
#29
06
#30
b00000000000000000000000000001001 #
b00000000000000000000000000111100 %
b00000000000000000000000000001001 4
16
#31
06
#32
b00000000000000000000000000001101 #
b00000000000000000000000001000000 %
b00000000000000000000000000001101 4
16
#33
06
#34
b00000000000000000000000000000001 #
b00000000000000000000000001000100 %
b00000000000000000000000000000001 4
16
#35
06
#36
b00000000000000000000000000000101 #
b00000000000000000000000001001000 %
b00000000000000000000000000000101 4
16
#37
06
#38
b00000000000000000000000000001001 #
b00000000000000000000000001001100 %
b00000000000000000000000000001001 4
16
#39
06
#40
b00000000000000000000000000001101 #
b00000000000000000000000001010000 %
b00000000000000000000000000001101 4
16
#41
06
#42
b00000000000000000000000000000001 #
b00000000000000000000000001010100 %
b00000000000000000000000000000001 4
16
#43
06
#44
b00000000000000000000000000000101 #
b00000000000000000000000001011000 %
b00000000000000000000000000000101 4
16
#45
06
#46
b00000000000000000000000000001001 #
b00000000000000000000000001011100 %
b00000000000000000000000000001001 4
16
#47
06
#48
b00000000000000000000000000001101 #
b00000000000000000000000001100000 %
b00000000000000000000000000001101 4
16
#49
06
#50
b00000000000000000000000000000001 #
b00000000000000000000000001100100 %
b00000000000000000000000000000001 4
16
#51
06
#52
b00000000000000000000000000000101 #
b00000000000000000000000001101000 %
b00000000000000000000000000000101 4
16
#53
06
#54
b00000000000000000000000000001001 #
b00000000000000000000000001101100 %
b00000000000000000000000000001001 4
16
#55
06
#56
b00000000000000000000000000001101 #
b00000000000000000000000001110000 %
b00000000000000000000000000001101 4
16
#57
06
#58
b00000000000000000000000000000001 #
b00000000000000000000000001110100 %
b00000000000000000000000000000001 4
16
#59
06
#60
b00000000000000000000000000000101 #
b00000000000000000000000001111000 %
b00000000000000000000000000000101 4
16
#61
06
#62
b00000000000000000000000000001001 #
b00000000000000000000000001111100 %
b00000000000000000000000000001001 4
16
#63
06
#64
b00000000000000000000000000001101 #
b00000000000000000000000010000000 %
b00000000000000000000000000001101 4
16
#65
06
#66
b00000000000000000000000000000001 #
b00000000000000000000000010000100 %
b00000000000000000000000000000001 4
16
#67
06
#68
b00000000000000000000000000000101 #
b00000000000000000000000010001000 %
b00000000000000000000000000000101 4
16
#69
06
#70
b00000000000000000000000000001001 #
b00000000000000000000000010001100 %
b00000000000000000000000000001001 4
16
#71
06
#72
b00000000000000000000000000001101 #
b00000000000000000000000010010000 %
b00000000000000000000000000001101 4
16
#73
06
#74
b00000000000000000000000000000001 #
b00000000000000000000000010010100 %
b00000000000000000000000000000001 4
16
#75
06
#76
b00000000000000000000000000000101 #
b00000000000000000000000010011000 %
b00000000000000000000000000000101 4
16
#77
06
#78
b00000000000000000000000000001001 #
b00000000000000000000000010011100 %
b00000000000000000000000000001001 4
16
#79
06
#80
b00000000000000000000000000001101 #
b00000000000000000000000010100000 %
b00000000000000000000000000001101 4
16
#81
06
#82
b00000000000000000000000000000001 #
b00000000000000000000000010100100 %
b00000000000000000000000000000001 4
16
#83
06
#84
b00000000000000000000000000000101 #
b00000000000000000000000010101000 %
b00000000000000000000000000000101 4
16
#85
06
#86
b00000000000000000000000000001001 #
b00000000000000000000000010101100 %
b00000000000000000000000000001001 4
16
#87
06
#88
b00000000000000000000000000001101 #
b00000000000000000000000010110000 %
b00000000000000000000000000001101 4
16
#89
06
#90
b00000000000000000000000000000001 #
b00000000000000000000000010110100 %
b00000000000000000000000000000001 4
16
#91
06
#92
b00000000000000000000000000000101 #
b00000000000000000000000010111000 %
b00000000000000000000000000000101 4
16
#93
06
#94
b00000000000000000000000000001001 #
b00000000000000000000000010111100 %
b00000000000000000000000000001001 4
16
#95
06
#96
b00000000000000000000000000001101 #
b00000000000000000000000011000000 %
b00000000000000000000000000001101 4
16
#97
06
#98
b00000000000000000000000000000001 #
b00000000000000000000000011000100 %
b00000000000000000000000000000001 4
16
#99
06
#100
b00000000000000000000000000000101 #
0$
b00000000000000000000000000000000 %
b01 &
b00000000000000000000000000000101 4
16
18
#101
06
#102
b00000000000000000000000000000001 #
1$
b00000000000000000000000000000100 %
b10 &
b00000000000000000000000000000001 4
16
08
#103
06
#104
b00000000000000000000000000000101 #
b00000000000000000000000000001000 %
b00000000000000000000000000000101 4
16
#105
06
#106
b00000000000000000000000000001001 #
b00000000000000000000000000001100 %
b00000000000000000000000000001001 4
16
#107
06
#108
b00000000000000000000000000001101 #
b00000000000000000000000000010000 %
b00000000000000000000000000001101 4
16
#109
06
#110
b00000000000000000000000000000001 #
b00000000000000000000000000010100 %
b00000000000000000000000000000001 4
16
#111
06
#112
b00000000000000000000000000000101 #
b00000000000000000000000000011000 %
b00000000000000000000000000000101 4
16
#113
06
#114
b00000000000000000000000000001001 #
b00000000000000000000000000011100 %
b00000000000000000000000000001001 4
16
#115
06
#116
b00000000000000000000000000001101 #
b00000000000000000000000000100000 %
b00000000000000000000000000001101 4
16
#117
06
#118
b00000000000000000000000000000001 #
b00000000000000000000000000100100 %
b00000000000000000000000000000001 4
16
#119
06
#120
b00000000000000000000000000000101 #
b00000000000000000000000000101000 %
b00000000000000000000000000000101 4
16
#121
06
#122
b00000000000000000000000000001001 #
b00000000000000000000000000101100 %
b00000000000000000000000000001001 4
16
#123
06
#124
b00000000000000000000000000001101 #
b00000000000000000000000000110000 %
b00000000000000000000000000001101 4
16
#125
06
#126
b00000000000000000000000000000001 #
b00000000000000000000000000110100 %
b00000000000000000000000000000001 4
16
#127
06
#128
b00000000000000000000000000000101 #
b00000000000000000000000000111000 %
b00000000000000000000000000000101 4
16
#129
06
#130
b00000000000000000000000000001001 #
b00000000000000000000000000111100 %
b00000000000000000000000000001001 4
16
#131
06
#132
b00000000000000000000000000001101 #
b00000000000000000000000001000000 %
b00000000000000000000000000001101 4
16
#133
06
#134
b00000000000000000000000000000001 #
b00000000000000000000000001000100 %
b00000000000000000000000000000001 4
16
#135
06
#136
b00000000000000000000000000000101 #
b00000000000000000000000001001000 %
b00000000000000000000000000000101 4
16
#137
06
#138
b00000000000000000000000000001001 #
b00000000000000000000000001001100 %
b00000000000000000000000000001001 4
16
#139
06
#140
b00000000000000000000000000001101 #
b00000000000000000000000001010000 %
b00000000000000000000000000001101 4
16
#141
06
#142
b00000000000000000000000000000001 #
b00000000000000000000000001010100 %
b00000000000000000000000000000001 4
16
#143
06
#144
b00000000000000000000000000000101 #
b00000000000000000000000001011000 %
b00000000000000000000000000000101 4
16
#145
06
#146
b00000000000000000000000000001001 #
b00000000000000000000000001011100 %
b00000000000000000000000000001001 4
16
#147
06
#148
b00000000000000000000000000001101 #
b00000000000000000000000001100000 %
b00000000000000000000000000001101 4
16
#149
06
#150
b00000000000000000000000000000001 #
b00000000000000000000000001100100 %
b00000000000000000000000000000001 4
16
#151
06
#152
b00000000000000000000000000000101 #
b00000000000000000000000001101000 %
b00000000000000000000000000000101 4
16
#153
06
#154
b00000000000000000000000000001001 #
b00000000000000000000000001101100 %
b00000000000000000000000000001001 4
16
#155
06
#156
b00000000000000000000000000001101 #
b00000000000000000000000001110000 %
b00000000000000000000000000001101 4
16
#157
06
#158
b00000000000000000000000000000001 #
b00000000000000000000000001110100 %
b00000000000000000000000000000001 4
16
#159
06
#160
b00000000000000000000000000000101 #
b00000000000000000000000001111000 %
b00000000000000000000000000000101 4
16
#161
06
#162
b00000000000000000000000000001001 #
b00000000000000000000000001111100 %
b00000000000000000000000000001001 4
16
#163
06
#164
b00000000000000000000000000001101 #
b00000000000000000000000010000000 %
b00000000000000000000000000001101 4
16
#165
06
#166
b00000000000000000000000000000001 #
b00000000000000000000000010000100 %
b00000000000000000000000000000001 4
16
#167
06
#168
b00000000000000000000000000000101 #
b00000000000000000000000010001000 %
b00000000000000000000000000000101 4
16
#169
06
#170
b00000000000000000000000000001001 #
b00000000000000000000000010001100 %
b00000000000000000000000000001001 4
16
#171
06
#172
b00000000000000000000000000001101 #
b00000000000000000000000010010000 %
b00000000000000000000000000001101 4
16
#173
06
#174
b00000000000000000000000000000001 #
b00000000000000000000000010010100 %
b00000000000000000000000000000001 4
16
#175
06
#176
b00000000000000000000000000000101 #
b00000000000000000000000010011000 %
b00000000000000000000000000000101 4
16
#177
06
#178
b00000000000000000000000000001001 #
b00000000000000000000000010011100 %
b00000000000000000000000000001001 4
16
#179
06
#180
b00000000000000000000000000001101 #
b00000000000000000000000010100000 %
b00000000000000000000000000001101 4
16
#181
06
#182
b00000000000000000000000000000001 #
b00000000000000000000000010100100 %
b00000000000000000000000000000001 4
16
#183
06
#184
b00000000000000000000000000000101 #
b00000000000000000000000010101000 %
b00000000000000000000000000000101 4
16
#185
06
#186
b00000000000000000000000000001001 #
b00000000000000000000000010101100 %
b00000000000000000000000000001001 4
16
#187
06
#188
b00000000000000000000000000001101 #
b00000000000000000000000010110000 %
b00000000000000000000000000001101 4
16
#189
06
#190
b00000000000000000000000000000001 #
b00000000000000000000000010110100 %
b00000000000000000000000000000001 4
16
#191
06
#192
b00000000000000000000000000000101 #
b00000000000000000000000010111000 %
b00000000000000000000000000000101 4
16
#193
06
#194
b00000000000000000000000000001001 #
b00000000000000000000000010111100 %
b00000000000000000000000000001001 4
16
#195
06
#196
b00000000000000000000000000001101 #
b00000000000000000000000011000000 %
b00000000000000000000000000001101 4
16
#197
06
#198
b00000000000000000000000000000001 #
b00000000000000000000000011000100 %
b00000000000000000000000000000001 4
16
#199
06
#200
b00000000000000000000000000000101 #
b00000000000000000000000000000101 4
16
0:
